time	score
1422	-181
1738	-180
1862	-179
1919	-178
1974	-177
1996	-176
2027	-175
2076	-174
2120	-173
2156	-172
2198	-171
2224	-170
2259	-169
2283	-168
2561	-167
2584	-166
2610	-165
2660	-164
2682	-163
2738	-162
2873	-161
2929	-160
2966	-159
2999	-158
3218	-157
3256	-156
3304	-155
3338	-154
3363	-153
3402	-149
3413	-148
3473	-146
3678	-145
3715	-144
3733	-143
3752	-142
3782	-125
3814	-115
3832	-114
3850	-113
4020	-112
4036	-111
4294	-110
4328	-109
4370	-108
4422	-107
4466	-106
4632	-105
4645	-104
4659	-103
4676	-102
4697	-101
4745	-100
4773	-98
4825	-96
5036	-95
5239	-94
5462	-93
5477	-92
5497	-91
5551	-90
5586	-88
5627	-86
5654	-85
5837	-84
5900	-83
5941	-82
5998	-81
6055	-80
6241	-79
6285	-78
6354	-77
6395	-76
6468	-75
6684	-74
6754	-73
6820	-72
6978	-71
7153	-70
7167	-69
7273	-68
7529	-67
7590	-66
7770	-65
7811	-64
7870	-62
7911	-61
7952	-60
7995	-59
8202	-58
8258	-56
8380	-55
8463	-54
8527	-53
8723	-52
8763	-51
8811	-50
8872	-49
8931	-48
9097	-45
9146	-43
9223	-42
9342	-41
9512	-40
9571	-39
9708	-37
9765	-36
9807	-35
9971	-34
10009	-33
10043	-31
10068	-30
10117	-29
10298	-28
10360	-27
10414	-26
10467	-25
10631	-22
10686	-21
10757	-20
10833	-19
11027	-18
11070	-17
11129	-8
11202	-7
11488	-6
11598	-5
11947	-4
12139	-3
12354	-2
13186	-1
13393	188
13626	189
13853	190
13867	191
14090	192
14105	193
14120	194
14354	195
14384	196
14803	197
15250	198
15534	199
15565	200
16289	201
16313	202
16357	203
16575	204
17427	205
17700	206
18135	207
18212	208
18460	209
18703	210
18957	211
20368	212
20636	213
20660	214
20725	220
21920	221
21946	222
21970	223
22499	224
22884	225
23764	226
24212	227
24233	228
25314	229
25717	231
26656	236
26684	237
26721	239
26994	240
27039	241
28310	242
28631	243
28999	244
29241	245
29509	262
29534	263
30533	264
30730	266
30759	268
32279	269
33019	270
33042	271
33076	272
33135	275
33183	276
33413	277
34202	278
34475	279
34564	280
34668	290
34972	291
36031	292
36045	293
37391	294
38805	295
38939	298
38953	299
39020	300
39172	303
40653	304
40690	305
41061	306
41175	307
41513	308
41536	309
41750	310
42047	311
47667	312
49463	313
49535	314
50714	315
50805	316
52634	317
52667	319
52715	320
52752	321
52768	322
62065	323
65490	324
65514	325
65542	327
65576	328
65819	336
65840	337
65863	340
69982	341
75547	342
75693	344
97659	345
97775	346
101871	347
101910	348
106046	349
108951	350
113635	351
121005	353
122006	354
122110	355
125850	357
125870	358
126785	359
130204	360
131893	361
139946	362
140154	363
141692	364
146827	367
156935	370
163868	371
164348	372
176630	373
176987	374
179084	375
203723	376
216634	377
282736	378
348578	379
351551	380
351561	381
386197	382
405443	383
443449	384
444093	385
462788	390
462931	391
476083	392
479152	393
479550	394
484728	395