time	score
1242	-217
1536	-216
1618	-215
1680	-214
1741	-213
1829	-212
1907	-211
1969	-210
2020	-209
2092	-208
2155	-207
2234	-206
2332	-203
2379	-186
2435	-183
2525	-181
2587	-180
2668	-179
2743	-178
2821	-177
2892	-174
2973	-173
3085	-172
3339	-171
3385	-170
3432	-169
3468	-168
3545	-167
3576	-166
3618	-165
3666	-164
3709	-163
3743	-162
3786	-158
3835	-156
3911	-155
3954	-153
4009	-152
4045	-151
4091	-149
4178	-148
4224	-147
4284	-146
4327	-144
4514	-143
4532	-142
4548	-141
4574	-140
4598	-139
4649	-138
4725	-127
4768	-126
4821	-125
4881	-124
4943	-123
4994	-122
5049	-121
5097	-117
5165	-116
5237	-115
5765	-114
5784	-113
5852	-111
5893	-110
5942	-108
6019	-107
6064	-105
6141	-104
6208	-103
6306	-102
6369	-101
6460	-100
6689	-99
6833	-98
7128	-95
7388	-94
7492	-93
7901	-92
7914	-91
7946	-90
8018	-89
8080	-88
8130	-86
8172	-84
8231	-83
8310	-82
8367	-81
8435	-80
8481	-78
8554	-77
8609	-72
8676	-69
8686	-68
8955	-67
8997	-66
9049	-65
9249	-64
9429	-63
9627	-60
9693	-59
10192	-58
10359	-57
14769	-56
14784	-55
14819	-54
14864	-53
14913	-52
14973	-51
16758	-46
19162	-45
19526	-44
19560	-43
20370	-42
20678	-38
20742	-27
20762	-26
20841	-25
20894	-23
20926	-22
20999	-21
21328	-20
21533	-19
21627	-18
21748	-17
21910	-16
21980	-15
22346	-14
22386	-13
23485	-11
23527	-10
23562	-8
23596	-7
23662	-6
23740	-5
23833	-4
23923	-3
24508	-2
27978	-1
31864	200
31878	201
31894	202
31944	203
31996	204
32067	205
32089	206
32346	207
32359	208
32373	209
32388	210
32412	211
32426	212
32440	213
32460	214
32685	215
34485	216
34505	217
34528	218
34555	219
34583	220
34613	221
34678	222
34704	223
35124	224
35414	225
35434	226
35452	227
35475	228
35498	229
35524	230
35549	231
35580	232
35702	233
35890	234
35995	235
36297	236
36314	237
36334	238
36355	239
36377	240
36403	241
36427	242
36451	243
36473	244
36598	245
36828	246
36877	247
37658	248
41130	249
41169	250
41519	251
42243	254
43077	255
43102	256
43129	258
43331	259
43710	260
43881	261
43911	263
46191	264
46294	268
46850	280
46992	286
47427	287
47461	288
50240	289
50305	290
50819	291
50892	292
51477	293
51507	294
51530	295
51562	296
51613	297
51649	298
51842	299
51857	300
51880	301
52568	302
52582	303
54005	304
54190	305
55736	306
55760	308
55772	309
55796	310
57553	311
57724	314
57777	315
58887	316
62206	321
62246	324
63222	325
63303	326
65127	327
66820	328
67010	329
68352	331
68484	336
71493	337
71534	339
71750	340
72925	341
73692	342
74962	343
91080	346
93604	347
99075	349
99094	350
99116	351
102191	352
102914	353
105230	354
106123	355
106199	356
110225	357
111086	358
111249	359
115602	360
115635	362
115645	363
115672	364
117169	365
118563	366
122997	367
125753	368
128067	369
128211	370
128402	371
129810	372
137258	373
138784	374
138835	375
139759	376
140388	377
151991	378
156072	379
156581	381
164694	382
167419	383
167463	384
181789	385
182457	386
186633	387
188194	388
189930	389
195289	390
196494	392
198119	393
198211	394
202692	395
202773	396
203042	398
203183	399
204111	400
209905	401
228965	402
239255	403
239310	405
266992	406
267822	407
273144	408
279259	409
282544	410
283609	411
295517	412
296920	413
300327	414
318960	415
329690	416
330984	417
340500	418
340810	419
340859	420
354590	421
463716	422
463942	424
490333	425