time	score
3052	70
3194	60
3248	50
3286	40
3311	30
3359	20
4184	10
4217	9
6512	0
7753	0
8269	70
8763	70
9520	70
10432	70
11200	70
12079	70
12692	70
13214	70
14159	70
14624	70
15362	69
15937	70
16524	69
17029	70
18565	69
20838	70
23237	70
24421	70
25997	70
28064	69
29244	68
30642	67
32838	70
34250	69
34828	70
37088	70
37539	69
38921	68
40009	70
43110	69
44279	70
45964	70
47653	70
48241	70
49740	69
50191	68
51204	67
51809	66
53883	70
55033	69
55492	70
56400	69
57141	68
58432	70
61560	70
64736	69
66475	68
67556	70
69630	69
70497	68
72440	70
75932	69
78046	68
80856	67
84545	70
86521	70
88717	70
92097	69
95165	70
97484	70
98807	70
99991	70
102037	70
104051	70
106887	69
108682	70
111542	70
113890	70
116679	70
118617	69
122686	70
126173	69
129467	68
133687	67
136253	66
139809	65
142841	70
145610	70
149117	70
153815	69
156283	70
158909	69
161603	68
164626	67
166856	66
169757	70
174012	69
176555	68
177543	67
181088	66
184694	65
185704	70
188431	69
189597	68
192157	70
195049	70
197508	69
199492	68
200874	67
203773	66
205780	65
208901	70
209827	69
221453	68
226968	70
229210	70
233892	69
238835	68
242227	67
248677	66
255000	65
258241	70
259203	70
262774	69
264690	68
265473	67
266796	70
270462	69
275312	70
275810	70
276343	69
276876	68
279482	67
280098	66
283480	65
287494	64
295036	70
296068	69
302861	68
309482	67
312178	66
314340	65
318428	70
319733	69
324952	68
327571	67
331625	66
336340	65
340721	64
345166	70
346964	69
348329	68
350386	67
353361	66
356516	65
357595	70
358616	69
362368	68
363985	70
366494	69
368348	70
370714	69
373579	70
374907	69
378725	68
380725	67
384159	66
386595	70
390431	70
393297	70
395360	69
397705	68
399691	67
403327	66
405809	65
410621	64
413272	63
415325	62
418205	61
420435	60
423448	59
432075	58
435878	57
436677	56
438928	55
441337	54
460255	53
460679	52
463850	51
465980	70
468180	69
470506	70
472808	69
478494	70
485261	69
493406	68
504464	67
507485	66
509182	65
512446	64
516530	63
518536	62
525939	61
529713	60
530364	59
534205	58
535009	70
538154	70
542634	70
544003	69
546238	68
548835	67
551226	70
554617	69
557261	68
560058	67
562234	66
565788	65
568417	64
570346	63
573396	62
575472	61
577516	70
582328	69
586909	68
589729	67
592276	66
595014	65
597709	64
599826	63
605093	62